<?xml version="1.0" encoding="utf-8"?><!-- Generator: Adobe Illustrator 22.0.1, SVG Export Plug-In . SVG Version: 6.00 Build 0)  -->
<svg style="enable-background:new 0 0 1025 1025;" id="Layer_1" version="1.1"  viewBox="0 0 1025 1025" x="0px"
	 xmlns="http://www.w3.org/2000/svg" y="0px" xml:space="preserve">
<style type="text/css">
	.st0{fill:#009A49;}
</style>
<title>infinitycirclesvg</title>
<g>
	<path class="st0" d="M211.1,522.7c0,345.4,603.5,353.4,603.5,0C815,291.1,211,291.1,211.1,522.7z"/>
	<path class="st0" d="M512.5,0C229.5,0,0,229.5,0,512.5S229.5,1025,512.5,1025S1025,795.5,1025,512.5S795.5,0,512.5,0z M512.7,845.9
		c-106.9,0-202.1-50.2-263.4-128.3C203.1,658.8,178,586,178.1,511.2c0-184.9,149.9-334.7,334.7-334.7
		c184.9,0,334.6,149.8,334.6,334.7S697.5,845.9,512.7,845.9z"/>
</g>
</svg>
